{
    "version": "1.2.0",
    "author": "David Marzal",
    "title": "13 - ATL",
    "podcastName": "Accesibilidad con Tecnologías Libres",
    "description": "DecimoTercer episodio",
    "chapters":
    [
        {
            "startTime": 0,
            "title": "David Marzal: Odisea en el ciberespacio",
            "img": "https://accesibilidadtl.gitlab.io/images/DavidMarzal.png",
            "url": "https://marzal.gitlab.io/mundolibre"
        },
        {
            "startTime": 30,
            "title": "Entrevista: Gafotas, Cegatos y sus Aparatos",
            "url": "https://cegatos.es/gca/",
            "img": "https://accesibilidadtl.gitlab.io/posts/atl/013/logo-gca.png",
            "toc": "false"
        },
        {
            "startTime": 823,
            "title": "Accesibilidad web, con Pablo Arias",
            "img": "https://accesibilidadtl.gitlab.io/images/PabloArias-rd.png"
        },
        {
            "startTime": 1668,
            "title": "Clases con Pascal, con David Pacios",
            "img": "https://accesibilidadtl.gitlab.io/images/DavidPacios.jpg",
            "url": "https://es.linkedin.com/in/pascal-ucm"
        },
        {
            "startTime": 2509,
            "title": "Érase una vez, con Enrique Varela",
            "img": "https://accesibilidadtl.gitlab.io/images/enrique-varela.jpeg",
            "url": "https://enriquevarela.tech/"
        },
        {
            "startTime": 3139,
            "title": "Jonathan Chacón: Diseño para todos",
            "img": "https://accesibilidadtl.gitlab.io/images/JonathnChacon.png",
            "url": "https://tyflosaccessiblesoftware.com/"
        }
    ]
}
