{
    "version": "1.2.0",
    "author": "David Marzal",
    "title": "03 - ATL",
    "podcastName": "Accesibilidad con Tecnologías Libres",
    "description": "Tercer episodio",
    "chapters":
    [
        {
            "startTime": 0,
            "title": "Odisea en el ciberespacio, con David Marzal, donde hablamos de WheelMap",
            "img": "https://accesibilidadtl.gitlab.io/posts/atl/003/Wheelmap-logo.webp",
            "url": "https://es.wikipedia.org/wiki/Wheelmap.org"
        },
        {
            "startTime": 603,
            "title": "Accesibilidad web, con Pablo Arias: texto alternativo de las imágenes en la web"
        },
        {
            "startTime": 1325,
            "title": "Otros mundos, otras realidades, con Thais Pousada: Comunicación Aumentativa y el portal de Arasaac",
            "url": "https://arasaac.org/index.html"
        },
        {
            "startTime": 2183,
            "title": "Testing Markolino: Ampliación de pantalla"
        },
        {
            "startTime": 2465,
            "title": "Testing Victor: Pruebas con KDE Neón"
        },
        {
            "startTime": 3250,
            "title": "Diseño para todos con Jonathan Chacón: mecatrónica"
        }
    ]
}
