{
    "version": "1.2.0",
    "author": "David Marzal",
    "title": "10 - ATL",
    "podcastName": "Accesibilidad con Tecnologías Libres",
    "description": "Decimo episodio",
    "chapters":
    [
        {
            "startTime": 0,
            "title": "David Marzal: Magazine de noticias",
            "img": "https://accesibilidadtl.gitlab.io/images/DavidMarzal.png"
        },
        {
            "startTime": 33,
            "title": "Mejorada la introducción de valores de algunos plugins que daban problemas en Audacity",
            "url": "https://support.audacityteam.org/additional-resources/changelog/audacity-3.6.1",
            "toc": "false"
        },
        {
            "startTime": 63,
            "title": "Anytime Podcast muy enfocada en accesibilidad",
            "img": "https://f-droid.org/repo/uk.me.amugofjava.anytime/en-US/icon_u8Oj4YBbugVSPkevgHYIL7i04T2G16EtGsc7Y39z7bU=.png",
            "url": "https://f-droid.org/es/packages/uk.me.amugofjava.anytime/",
            "toc": "false"
        },
        {
            "startTime": 116 ,
            "title": "Web con artículos sobre la accesibilidad de los videojuegos",
            "img": "https://caniplaythat.com/wp-content/themes/caniplaytheme/img/missing-image.png",
            "url": "https://caniplaythat.com/",
            "toc": "false"
        },
        {
            "startTime": 176,
            "title": "Recopilatorio de leyes sobre accesibilidad en todo el mundo",
            "img": "https://www.lflegal.com/wp-content/uploads/2016/03/cropped-lf-braille-1-300x300.png",
            "url": "https://www.lflegal.com/global-law-and-policy/#Spain",
            "toc": "false"
        },
        {
            "startTime": 269,
            "title": "NVDA los enlaces que apuntan al mismo documento",
            "img": "https://upload.wikimedia.org/wikipedia/commons/a/a5/NVDA_Logo.png",
            "toc": "false"
        },
        {
            "startTime": 310,
            "title": "@cti_once@fedifeed.net sobre las novedades del CTI de la ONCE",
            "toc": "false"
        },
        {
            "startTime": 379,
            "title": "Pablo Arias. Captchas",
            "img": "https://accesibilidadtl.gitlab.io/images/PabloArias-rd.png",
            "url": "https://www.pabloarias.eu/"
        },
        {
            "startTime": 927,
            "title": "Thais Pousada: Códigos QR de Navilens",
            "img": "https://www.navilens.com/images/navilens/etiqueta.png",
            "url": "https://www.navilens.com/es/"
        },
        {
            "startTime": 1661,
            "title": "Víctor: Linux Mint 22 con Cinnamon.",
            "img": "https://www.linuxmint.com/pictures/screenshots/wilma/cinnamon.png",
            "url": "https://www.linuxmint.com/edition.php?id=317"
        },
        {
            "startTime": 1950,
            "title": "Clases con Pascal, con David Pacios",
            "img": "https://accesibilidadtl.gitlab.io/images/DavidPacios.jpg",
            "url": "https://es.linkedin.com/in/pascal-ucm"
        },
        {
            "startTime": 2977,
            "title": "Presentación : Érase una vez, con Enrique Varela",
            "img": "https://accesibilidadtl.gitlab.io/images/enrique-varela.jpeg",
            "url": "https://enriquevarela.tech/"
        }
    ]
}
