{
    "version": "1.2.0",
    "author": "David Marzal",
    "title": "09 - ATL",
    "podcastName": "Accesibilidad con Tecnologías Libres",
    "description": "Noveno episodio",
    "chapters":
    [
        {
            "startTime": 0,
            "title": "Clases con Pascal, con David Pacios",
            "img": "https://accesibilidadtl.gitlab.io/images/DavidPacios.jpg",
            "url": "https://es.linkedin.com/in/pascal-ucm"           
        },
        {
            "startTime": 404,
            "title": "David Marzal: Jan y noticias",
            "img": "https://accesibilidadtl.gitlab.io/images/DavidMarzal.png"
        },
        {
            "startTime": 433,
            "title": "Jan, una aplicación gráfica para jugar con LLMs de manera sencilla",
            "img": "https://jan.ai/assets/images/homepage/app-frame-light-fixed.webp",
            "url": "https://jan.ai",
            "toc": "false"
        },
        {
            "startTime": 788,
            "title": "Accesibilidad en la Ley de Inteligencia Artificial",
            "img": "https://blogger.googleusercontent.com/img/b/R29vZ2xl/AVvXsEjbiLk2b7eKHzb6j-wXfMXCukwDIHV4i4VN9DBwz63uZUfQ4OwLFs2LCgb01yhLPk2zUciDpBB9kq9TU3xY3cWJ2WEkevcdJ7-1xOsqxk6rZ5MDUI0XxG6orEPv9LWUlRt41AfbxKSxAssy7nbs1h1r-LfdsONPv0YKQohGYb2GHRb9dj0bp_gFrvoCLJzu/s1600/ia1.png",
            "url": "https://olgacarreras.blogspot.com/2024/07/ley-de-inteligencia-artificial-de-la.html",
            "toc": "false"
        },
        {
            "startTime": 889,
            "title": "Maldita sobre la importancia de que las IAs sean abiertas",
            "img": "https://maldita.es/uploads/images/2024/07/669f8c6994fd5portadas-julio-15-png.png",
            "url": "https://maldita.es/malditatecnologia/20240724/ia-codigo-abierto-importante",
            "toc": "false"
        },
        {
            "startTime": 948,
            "title": "Accesibilidad de Matrix en 2023",
            "url": "https://make.wordpress.org/accessibility/2023/08/07/matrix-test-results/",
            "toc": "false"
        },
        {
            "startTime": 1084,
            "title": "Wikipedia ya tiene modo oscuro y algunas variantes para accesibilidad",
            "img": "https://upload.wikimedia.org/wikipedia/commons/thumb/2/28/Wikipedia-userstyle-dark-minimum--mar-2024.png/640px-Wikipedia-userstyle-dark-minimum--mar-2024.png",
            "url": "https://en.wikipedia.org/wiki/Wikipedia:Dark_mode",
            "toc": "false"
        },
        {
            "startTime": 1270,
            "title": "Presentación : Érase una vez, con Enrique Varela",
            "img": "https://accesibilidadtl.gitlab.io/images/enrique-varela.jpeg",
            "url": "https://enriquevarela.tech/"
        },
        {
            "startTime": 1625,
            "title": "Víctor: Linux Mint 22 con XFCE.",
            "img": "https://www.linuxmint.com/pictures/screenshots/wilma/xfce.png",
            "url": "https://www.linuxmint.com/edition.php?id=317"
        },
        {
            "startTime": 2131,
            "title": "Pablo Arias. Captchas",
            "img": "https://accesibilidadtl.gitlab.io/images/PabloArias-rd.png",
            "url": "https://www.pabloarias.eu/"
        }
    ]
}
